Name,WeightClassKg,Best3BenchKg,Bench4Kg,TotalKg,Sex,Division,Event,Equipment,Place
R. Sakauchi,44,72.5,,72.5,F,Open,B,Single-ply,1
T. Ishii,52,90,,90,F,Open,B,Single-ply,1
S. Takabashi,82.5,130,,130,F,Open,B,Single-ply,1
Y. Dobashi,44,62.5,,62.5,F,Open,B,Single-ply,2
A. Iwasaki,44,55,,55,F,Open,B,Single-ply,3
Y. Asami,44,,,,F,Open,B,Single-ply,DQ
Hisako Yoshida,48,85,,85,F,Open,B,Single-ply,2
Y. Shinmachi,48,85.5,,85.5,F,Open,B,Single-ply,1
T. Watanabe,48,82.5,,82.5,F,Open,B,Single-ply,3
R. Sagawa,48,50,,50,F,Open,B,Single-ply,4
Y. Watanabe,48,50,,50,F,Open,B,Single-ply,5
N. Sasaki,48,32.5,,32.5,F,Open,B,Single-ply,6
A. Nakayama,48,32.5,,32.5,F,Open,B,Single-ply,7
S. Sakurai,48,,,,F,Open,B,Single-ply,DQ
Y. Uno,52,65,,65,F,Open,B,Single-ply,2
Y. Uneno,52,65,,65,F,Open,B,Single-ply,3
M. Okatome,52,60,,60,F,Open,B,Single-ply,4
A. Tamaka,52,45,,45,F,Open,B,Single-ply,5
H. Yamada,52,,,,F,Open,B,Single-ply,DQ
M. Akabane,52,32.5,,32.5,F,Open,B,Single-ply,6
M. Okuno,56,85,,85,F,Open,B,Single-ply,1
M. Aizawa,56,72.5,,72.5,F,Open,B,Single-ply,2
M. Hoshi,56,70,,70,F,Open,B,Single-ply,3
M. Nagayoshi,56,65,,65,F,Open,B,Single-ply,4
K. Kobayashi,56,62.5,,62.5,F,Open,B,Single-ply,5
Eriko Himeno,60,105.5,,105.5,F,Open,B,Single-ply,1
S. Seno,60,87.5,,87.5,F,Open,B,Single-ply,2
A. Kozuki,60,72.5,,72.5,F,Open,B,Single-ply,3
Y. Shrokura,60,52.5,,52.5,F,Open,B,Single-ply,4
F. O'Hara,60,42.5,,42.5,F,Open,B,Single-ply,5
Yoriko Yamazaki,67.5,107.5,,107.5,F,Open,B,Single-ply,1
N. Osuka,67.5,77.5,,77.5,F,Open,B,Single-ply,2
M. Sato,67.5,65,,65,F,Open,B,Single-ply,3
S. Kumagaya,67.5,52.5,,52.5,F,Open,B,Single-ply,4
T. Otsuka,67.5,50,,50,F,Open,B,Single-ply,5
R. Kono,67.5,,,,F,Open,B,Single-ply,DQ
M. Inaba,75,50,,50,F,Open,B,Single-ply,1
M. Okada,75,,,,F,Open,B,Single-ply,DQ
Y. Kadokura,52,120,,120,M,Open,B,Single-ply,1
S. Oshiro,52,115,,115,M,Open,B,Single-ply,2
T. Nakajima,52,112.5,,112.5,M,Open,B,Single-ply,3
H. Muro,52,110,,110,M,Open,B,Single-ply,4
T. Matsumoto,52,105,,105,M,Open,B,Single-ply,5
K. Watanabe,52,100,,100,M,Open,B,Single-ply,6
T. Nonaka,52,70,,70,M,Open,B,Single-ply,7
M. Nagasaka,52,,,,M,Open,B,Single-ply,DQ
S. Katase,56,140,,140,M,Open,B,Single-ply,1
C. Mizaguchi,56,130,,130,M,Open,B,Single-ply,2
Y. Chisaka,56,122.5,,122.5,M,Open,B,Single-ply,3
H. Rikihisa,56,120,,120,M,Open,B,Single-ply,4
K. Fujita,56,117.5,,117.5,M,Open,B,Single-ply,5
H. Ashikawa,56,117.5,,117.5,M,Open,B,Single-ply,6
H. Murakami,56,112.5,,112.5,M,Open,B,Single-ply,7
H. Okuda,56,107.5,,107.5,M,Open,B,Single-ply,8
T. Imai,56,102.5,,102.5,M,Open,B,Single-ply,9
N. Inoue,56,100,,100,M,Open,B,Single-ply,10
M. Morita,56,77.5,,77.5,M,Open,B,Single-ply,11
T. Makishima,56,,,,M,Open,B,Single-ply,DQ
Hiroyuki Isagawa,60,165,,165,M,Open,B,Single-ply,1
T. Sakaguchi,60,142.5,,142.5,M,Open,B,Single-ply,2
K. Ikegami,60,122.5,,122.5,M,Open,B,Single-ply,3
Y. Takimoto,60,120,,120,M,Open,B,Single-ply,4
K. Otsuka,60,115,,115,M,Open,B,Single-ply,5
T. Togo,60,115,,115,M,Open,B,Single-ply,6
K. Hamanaka,60,110,,110,M,Open,B,Single-ply,7
K. Honda,60,107.5,,107.5,M,Open,B,Single-ply,8
Y. Shimoi,60,95,,95,M,Open,B,Single-ply,9
K. Watanabe,60,,,,M,Open,B,Single-ply,DQ
S. Miyashiro,60,,,,M,Open,B,Single-ply,DQ
Y. Tominaga,67.5,170,,170,M,Open,B,Single-ply,1
G. Kuroiwa,67.5,167.5,,167.5,M,Open,B,Single-ply,2
H. Yano,67.5,167.5,,167.5,M,Open,B,Single-ply,3
K. Yuji,67.5,157.5,,157.5,M,Open,B,Single-ply,4
K. Seo,67.5,152.5,,152.5,M,Open,B,Single-ply,5
T. Noguchi,67.5,150,,150,M,Open,B,Single-ply,6
K. Nakazawa,67.5,150,,150,M,Open,B,Single-ply,7
T. Ida,67.5,130,,130,M,Open,B,Single-ply,8
K. Kagoshima,67.5,125,,125,M,Open,B,Single-ply,9
K. Kume,67.5,125,,125,M,Open,B,Single-ply,10
K. Nakamura,67.5,120,,120,M,Open,B,Single-ply,11
A. Yamaguchi,67.5,115,,115,M,Open,B,Single-ply,13
M. Kimura,67.5,90,,90,M,Open,B,Single-ply,14
Matshushima,67.5,82.5,,82.5,M,Open,B,Single-ply,15
M. Tominaga,67.5,117.5,,117.5,M,Open,B,Single-ply,12
M. Koike,67.5,,,,M,Open,B,Single-ply,DQ
Y. Fushimi,67.5,,,,M,Open,B,Single-ply,DQ
A. Kuramitsu,67.5,,,,M,Open,B,Single-ply,DQ
T. Takigawa,67.5,,,,M,Open,B,Single-ply,DQ
S. Otani,75,185.5,187.5,185.5,M,Open,B,Single-ply,1
H. Kuwabara,75,180,,180,M,Open,B,Single-ply,2
N. Kotani,75,172.5,,172.5,M,Open,B,Single-ply,3
S. Torri,75,170,,170,M,Open,B,Single-ply,4
H. Mizota,75,160,,160,M,Open,B,Single-ply,5
H. Soto,75,160,,160,M,Open,B,Single-ply,6
Y. Yamada,75,155,,155,M,Open,B,Single-ply,7
K. Yawata,75,150,,150,M,Open,B,Single-ply,8
G. Takayama,75,125,,125,M,Open,B,Single-ply,9
H. Watanabe,75,107.5,,107.5,M,Open,B,Single-ply,10
A. Takashima,75,95,,95,M,Open,B,Single-ply,11
K. Sato,75,,,,M,Open,B,Single-ply,DQ
J. Saito,75,,,,M,Open,B,Single-ply,DQ
K. Tashiro,75,,,,M,Open,B,Single-ply,DQ
M. Isobe,82.5,187.5,,187.5,M,Open,B,Single-ply,1
J. Isu,82.5,185,,185,M,Open,B,Single-ply,2
H. Ishimatsu,82.5,177.5,,177.5,M,Open,B,Single-ply,3
Y. Nakamura,82.5,170,,170,M,Open,B,Single-ply,4
N. Yamazaki,82.5,167.5,,167.5,M,Open,B,Single-ply,5
H Noguchi,82.5,165,,165,M,Open,B,Single-ply,6
K. Otsuka,82.5,157.5,,157.5,M,Open,B,Single-ply,8
T. Ishii,82.5,135,,135,M,Open,B,Single-ply,9
Y. Miyasaka,82.5,135,,135,M,Open,B,Single-ply,10
M. Furuya,82.5,120,,120,M,Open,B,Single-ply,11
K. Yamakawa,82.5,112.5,,112.5,M,Open,B,Single-ply,12
K. Niyazawa,82.5,100,,100,M,Open,B,Single-ply,13
M. Miyaji,82.5,165,,165,M,Open,B,Single-ply,7
S. Hamada,82.5,,,,M,Open,B,Single-ply,DQ
K. Nagaoka,82.5,,,,M,Open,B,Single-ply,DQ
Y. Takei,82.5,,,,M,Open,B,Single-ply,DQ
N. Ishida,82.5,,,,M,Open,B,Single-ply,DQ
K. Tanabe,82.5,,,,M,Open,B,Single-ply,DQ
Y. Imoto,82.5,,,,M,Open,B,Single-ply,DQ
M. Nakayama,90,202.5,,202.5,M,Open,B,Single-ply,1
M. Yokoyama,90,187.5,,187.5,M,Open,B,Single-ply,2
M. Gima,90,180,,180,M,Open,B,Single-ply,3
R. Ando #1,90,175,,175,M,Open,B,Single-ply,4
T. Tagami,90,175,,175,M,Open,B,Single-ply,5
Y. Takahashi,90,175,,175,M,Open,B,Single-ply,6
S. Sakamoto,90,172.5,,172.5,M,Open,B,Single-ply,7
J. Taketomi,90,170,,170,M,Open,B,Single-ply,8
T. Hirano,90,165,,165,M,Open,B,Single-ply,9
E. Toya,90,162.5,,162.5,M,Open,B,Single-ply,10
H. Osawa,90,160,,160,M,Open,B,Single-ply,11
K. Fukuyama,90,160,,160,M,Open,B,Single-ply,12
T. Suzuki,90,160,,160,M,Open,B,Single-ply,13
S. Wada,90,157.5,,157.5,M,Open,B,Single-ply,14
Y. Onoue,90,155,,155,M,Open,B,Single-ply,15
G. Smith,90,155,,155,M,Open,B,Single-ply,16
K. Karasaki,90,150,,150,M,Open,B,Single-ply,18
S. Uetake,90,150,,150,M,Open,B,Single-ply,19
T. Tomimura,90,125,,125,M,Open,B,Single-ply,20
I. Jinbo,90,155,,155,M,Open,B,Single-ply,17
H. Takesaki,90,,,,M,Open,B,Single-ply,DQ
M. Kikumoto,90,,,,M,Open,B,Single-ply,DQ
Hitashi Nashiro,100,210,,210,M,Open,B,Single-ply,1
N. Ishikawa,100,200,,200,M,Open,B,Single-ply,2
M. Miyamoto,100,192.5,,192.5,M,Open,B,Single-ply,3
T. Yoshia,100,190,,190,M,Open,B,Single-ply,4
M. Seno,100,180,,180,M,Open,B,Single-ply,5
M. Mikami,100,175,,175,M,Open,B,Single-ply,6
S. Matsura,100,170,,170,M,Open,B,Single-ply,7
T. Iwasaki,100,140,,140,M,Open,B,Single-ply,8
H. Saita,100,,,,M,Open,B,Single-ply,DQ
T. Hisaka,100,,,,M,Open,B,Single-ply,DQ
Daisuke Midote,110,215,,215,M,Open,B,Single-ply,1
A. Shinsato,110,205,,205,M,Open,B,Single-ply,2
S. Yoshida,110,200,,200,M,Open,B,Single-ply,3
M. Nishimura,110,200,,200,M,Open,B,Single-ply,4
M. Saito,110,195,,195,M,Open,B,Single-ply,5
C. Wilson,110,195,,195,M,Open,B,Single-ply,6
H. Nakamura,110,175,,175,M,Open,B,Single-ply,7
T. Iwasaki,125,210,,210,M,Open,B,Single-ply,1
E. Mukai,125,205,,205,M,Open,B,Single-ply,2
M. Itokazu,125,205,,205,M,Open,B,Single-ply,3
I. Ujiie,125,202.5,,202.5,M,Open,B,Single-ply,4
H. Suzuki,125,190,,190,M,Open,B,Single-ply,5
Y. Fukushima,125,185,,185,M,Open,B,Single-ply,6
A. Mishima,125,135,,135,M,Open,B,Single-ply,7
S. Nakayama,125,,,,M,Open,B,Single-ply,DQ
T. Shimomura,125+,215,,215,M,Open,B,Single-ply,1
W. Hunter,125+,185,,185,M,Open,B,Single-ply,2
