Event,Sex,Division,WeightClassKg,Best3BenchKg,Bench4Kg,Best3DeadliftKg,Deadlift4Kg,TotalKg,Name,Country,State,Equipment,Place
B,M,Class 1,67.5,142.5,,,,142.5,Jonathan Rosete,,OR,Single-ply,1
B,M,Class 1,82.5,193,,,,193,Ray Segura,,WA,Single-ply,1
B,M,Class 1,82.5,160,,,,160,Shawn Oliphant,,OR,Single-ply,2
B,M,Class 1,90,175,,,,175,Alonzo Belen,,WA,Single-ply,1
B,M,Class 1,90,112.5,,,,112.5,Zachary Freemantle,,WA,Single-ply,2
B,M,Class 1,100,147.5,,,,147.5,Chet Hendrickson,,OR,Single-ply,3
B,M,Class 1,100,200,,,,200,Uepati Tauti,,OR,Single-ply,1
B,M,Class 1,100,160,,,,160,George Merrill,,OR,Single-ply,2
B,M,Class 1,117.5,207.5,,,,207.5,William Evans,,OR,Single-ply,1
B,M,Disabled 1 13-19,44,27.5,,,,27.5,Garrett Hawk,,WA,Single-ply,1
B,M,Disabled 1 13-19,48,32.5,35,,,32.5,Alex Johnson,,WA,Single-ply,1
B,M,Disabled 1 13-19,52,35,,,,35,Justin Naramor,,WA,Single-ply,1
B,M,Disabled 1 13-19,52,27.5,,,,27.5,Dalton Marchand,,WA,Single-ply,2
B,M,Disabled 1 13-19,67.5,45,,,,45,Husai Sanchez,,WA,Single-ply,1
B,M,Disabled 1 13-19,67.5,42.5,45,,,42.5,Damian Parra,,WA,Single-ply,2
B,M,Disabled 2 13-19,56,32.5,,,,32.5,Adrian Robles,,OR,Single-ply,1
B,M,Disabled 2 40-59,125,207.5,,,,207.5,Joseph Pyle,,OR,Single-ply,1
B,M,Juniors 20-25,75,165,,,,165,Jeramie Dawley,,OR,Single-ply,1
B,M,Juniors 20-25,140+,192.5,,,,192.5,Joshua Koch,,OR,Single-ply,1
B,M,Law-Fire 40-47,117.5,165,,,,165,Bill Splawn,,WA,Single-ply,1
B,M,Law-Fire 48-55,100,150,,,,150,James Combs,,MT,Multi-ply,1
B,M,Law-Fire 48-55,110,130,,,,130,Marc Boardman,,WA,Single-ply,1
B,M,Law-Fire 56-63,125,145,,,,145,Donald Bryant,,WA,Single-ply,1
B,M,Law-Fire 64,75,115,,,,115,Richard Rogers,,WA,Single-ply,1
B,M,Law-Fire Open,75,137.5,,,,137.5,Eli Huizar Zuniga,,WA,Multi-ply,1
B,M,Law-Fire Submasters,117.5,137.5,,,,137.5,Dan Logan,,WA,Single-ply,1
B,M,Masters 40-46,82.5,160,,,,160,Shawn Oliphant,,OR,Single-ply,1
B,M,Masters 40-46,90,152.5,,,,152.5,Dave Wallentine,,WA,Single-ply,1
B,M,Masters 40-46,110,205,,,,205,John Anthony,,OR,Single-ply,1
B,M,Masters 40-46,117.5,165,,,,165,Dawane Harris,,OR,Single-ply,3
B,M,Masters 40-46,117.5,322.5,342.5,,,322.5,Gustavo Warrington,,OR,Single-ply,1
B,M,Masters 40-46,117.5,227.5,,,,227.5,Troy Chun,,OR,Single-ply,2
B,M,Masters 47-53,75,165,,,,165,Eric Lumpkin,,OR,Single-ply,1
B,M,Masters 47-53,90,175,,,,175,Alonzo Belen,,WA,Single-ply,1
B,M,Masters 47-53,100,167.5,,,,167.5,Dave Shockman,,OR,Single-ply,1
B,M,Masters 47-53,100,160,,,,160,George Merrill,,OR,Single-ply,2
B,M,Masters 54-60,100,160,,,,160,James Spainhower,,WA,Single-ply,1
B,M,Masters 54-60,140+,253,,,,253,Joe Mickelson,,WA,Single-ply,1
B,M,Masters 61-67,75,192.5,,,,192.5,Alfredo Evangelista,,OR,Single-ply,1
B,M,Masters 61-67,100,132.5,138.5,,,132.5,Ron Axtman,,ID,Single-ply,2
B,M,Masters 61-67,100,147.5,,,,147.5,Nin Beseda,,WA,Single-ply,1
B,M,Masters 61-67,140,142.5,,,,142.5,Larry Riskey,,OR,Single-ply,1
B,M,Masters 68-74,90,182.5,,,,182.5,Joe Beteta,,OR,Multi-ply,1
B,M,Masters 80-84,60,93,,,,93,Larry Vincent,,OR,Single-ply,1
B,M,Masters 85-89,82.5,55,,,,55,Nixon Munly,,OR,Single-ply,1
B,M,Open,67.5,175,,,,175,Jake Fiscus,,OR,Single-ply,1
B,M,Open,75,137.5,,,,137.5,Eli Huizar Zuniga,,WA,Multi-ply,1
B,M,Open,75,192.5,,,,192.5,Alfredo Evangelista,,OR,Single-ply,1
B,M,Open,82.5,247.5,,,,247.5,Willard Crossen III,,WA,Single-ply,1
B,M,Open,100,165,,,,165,Nicholas Cole,,WA,Single-ply,1
B,M,Open,117.5,322.5,342.5,,,322.5,Gustavo Warrington,,OR,Single-ply,1
B,M,Open,140+,253,255,,,253,Joe Mickelson,,WA,Single-ply,1
B,M,Special Olympian,140,85,,,,85,Randolph Pieren,,OR,Single-ply,1
B,M,Submasters 33-39,75,175,,,,175,Barry Kunkel,,OR,Single-ply,1
B,M,Submasters 33-39,82.5,247.5,,,,247.5,Willard Crossen III,,WA,Single-ply,1
B,M,Submasters 33-39,82.5,175,,,,175,Murphy Knott,,OR,Multi-ply,1
B,M,Teen 12-13,48,25,,,,25,Aahmi Bello,,OR,Single-ply,1
B,M,Teen 12-13,56,40,,,,40,Gabriel Robles,,OR,Single-ply,1
B,M,Teen 12-13,75,35,,,,35,Gabe Yancey,,OR,Single-ply,1
B,M,Teen 12-13,90,105,,,,105,Ethan Chun,,OR,Single-ply,1
B,M,Teen 16-17,67.5,122.5,,,,122.5,Mason Nakamura,,OR,Single-ply,1
B,M,Teen 18-19,82.5,100,,,,100,Levi Miller,,OR,Single-ply,1
D,M,Class 1,82.5,,,232.5,,232.5,Ray Segura,,WA,Single-ply,1
D,M,Class 1,90,,,247.5,,247.5,Zachary Freemantle,,WA,Single-ply,1
D,M,Class 1,100,,,257.5,,257.5,Uepati Tauti,,OR,Single-ply,1
D,M,Class 1,100,,,245,,245,Andrew Burton,,OR,Single-ply,2
D,M,Class 1,117.5,,,260,,260,Matt Milstead,,WA,Single-ply,1
D,M,Disabled 1 13-19,44,,,45,,45,Garrett Hawk,,WA,Single-ply,1
D,M,Disabled 1 13-19,48,,,62.5,70,62.5,Adrian Robles,,OR,Single-ply,1
D,M,Disabled 1 13-19,48,,,62.5,,62.5,Alex Johnson,,WA,Single-ply,2
D,M,Disabled 1 13-19,52,,,72.5,,72.5,Justin Naramor,,WA,Single-ply,1
D,M,Disabled 1 13-19,56,,,57.5,,57.5,Dalton Marchand,,WA,Single-ply,1
D,M,Disabled 1 13-19,67.5,,,100,,100,Damian Parra,,WA,Single-ply,1
D,M,Disabled 1 13-19,67.5,,,80,,80,Husai Sanchez,,WA,Single-ply,2
D,M,Juniors 20-25,75,,,182.5,,182.5,Jeramie Dawley,,OR,Single-ply,1
D,M,Juniors 20-25,140+,,,210,,210,Joshua Koch,,OR,Single-ply,1
D,M,Law-Fire 40-47,117.5,,,230,,230,Bill Splawn,,WA,Single-ply,1
D,M,Law-Fire 48-55,100,,,182.5,,182.5,James Combs,,MT,Single-ply,1
D,M,Law-Fire 56-63,125,,,260,270,260,Willard Crossen Jr,,WA,Single-ply,1
D,M,Law-Fire 64,75,,,160,,160,Richard Rogers,,WA,Single-ply,1
D,M,Law-Fire Open,75,,,182.5,,182.5,Eli Huizar Zuniga,,WA,Multi-ply,1
D,M,Law-Fire Open,90,,,235,,235,Todd Olsen,,WA,Single-ply,1
D,M,Masters 40-46,67.5,,,197.5,,197.5,Oscar Martinez,,WA,Single-ply,1
D,M,Masters 40-46,90,,,205,,205,Dave Wallentine,,WA,Single-ply,1
D,M,Masters 40-46,100,,,250,,250,Jason Dassel,,OR,Single-ply,1
D,M,Masters 40-46,100,,,240,,240,George Price,,WA,Single-ply,2
D,M,Masters 40-46,110,,,290,,290,John Anthony,,OR,Single-ply,1
D,M,Masters 47-53,67.5,,,165,,165,James Needles,,WA,Single-ply,2
D,M,Masters 47-53,67.5,,,170,,170,Mitchell Thomas,,HI,Single-ply,1
D,M,Masters 47-53,75,,,195,,195,Eric Lumpkin,,OR,Single-ply,1
D,M,Masters 47-53,90,,,252.5,,252.5,Richard Joachim,,OR,Single-ply,1
D,M,Masters 47-53,117.5,,,295,,295,Tom Pennella,,WA,Single-ply,1
D,M,Masters 47-53,140,,,295,,295,Gary Palumbis,,OR,Single-ply,1
D,M,Masters 54-60,140+,,,257.5,,257.5,Joe Mickelson,,WA,Single-ply,1
D,M,Masters 61-67,75,,,227.5,,227.5,Alfredo Evangelista,,OR,Single-ply,1
D,M,Masters 61-67,140,,,167.5,,167.5,Larry Riskey,,OR,Single-ply,1
D,M,Masters 68-74,90,,,197.5,,197.5,Mark Clark,,OR,Single-ply,1
D,M,Masters 80-84,60,,,122.5,,122.5,Larry Vincent,,OR,Single-ply,1
D,M,Open,67.5,,,205.5,,205.5,Rodell Esteban,,OR,Multi-ply,1
D,M,Open,67.5,,,170,,170,Mitchell Thomas,,HI,Single-ply,1
D,M,Open,75,,,227.5,,227.5,Alfredo Evangelista,,OR,Single-ply,1
D,M,Open,75,,,182.5,,182.5,Eli Huizar Zuniga,,WA,Multi-ply,1
D,M,Open,82.5,,,340.5,,340.5,Edwin Manmano,,HI,Single-ply,1
D,M,Open,100,,,242.5,,242.5,Nicholas Cole,,WA,Single-ply,1
D,M,Open,117.5,,,356,,356,Travis McCormick,,OR,Single-ply,1
D,M,Open,140+,,,257.5,,257.5,Joe Mickelson,,WA,Single-ply,1
D,M,Special Olympian,140,,,115,117.5,115,Randolph Pieren,,OR,Single-ply,1
D,M,Submasters 33-39,67.5,,,205.5,,205.5,Rodell Esteban,,OR,Multi-ply,1
D,M,Submasters 33-39,67.5,,,205,,205,Jonathan Rosete,,OR,Single-ply,1
D,M,Submasters 33-39,75,,,235,,235,Barry Kunkel,,OR,Single-ply,1
D,M,Submasters 33-39,110,,,303,,303,Ira Kekaualua,,WA,Single-ply,1
D,M,Submasters 33-39,117.5,,,356,,356,Travis McCormick,,OR,Single-ply,1
D,M,Teen 12-13,44,,,55,,55,Derek McCormick,,OR,Single-ply,1
D,M,Teen 12-13,56,,,120,135.5,120,Gabriel Robles,,OR,Single-ply,1
D,M,Teen 12-13,75,,,70,,70,Gabe Yancey,,OR,Single-ply,1
D,M,Teen 14-15,56,,,137.5,,137.5,Kaison Uehara,,OR,Single-ply,1
D,M,Teen 16-17,60,,,140,,140,Ian Tsang,,WA,Single-ply,1
D,M,Teen 16-17,67.5,,,197.5,,197.5,Mason Nakamura,,OR,Single-ply,1
D,M,Teen 18-19,82.5,,,150,,150,Levi Miller,,OR,Single-ply,2
D,M,Teen 18-19,82.5,,,187.5,,187.5,Ryan Willis,,WA,Single-ply,1
D,M,Teen 18-19,100,,,195,,195,Anthony Campos,,OR,Single-ply,1
BD,M,Juniors 20-25,75,165,,182.5,,347.5,Jeramie Dawley,,OR,Single-ply,1
BD,M,Juniors 20-25,140+,192.5,,210,,402.5,Joshua Koch,,OR,Single-ply,1
BD,M,Law-Fire 40-47,117.5,165,,230,,395,Bill Splawn,,WA,Single-ply,1
BD,M,Law-Fire 64,75,115,,160,,275,Richard Rogers,,WA,Single-ply,1
BD,M,Law-Fire Open,75,137.5,,182.5,,320,Eli Huizar Zuniga,,WA,Multi-ply,1
BD,M,Masters 40-46,110,205,,290,,495,John Anthony,,OR,Single-ply,1
BD,M,Masters 47-53,75,165,,195,,360,Eric Lumpkin,,OR,Single-ply,1
BD,M,Masters 54-60,140+,253,255,257.5,,510.5,Joe Mickelson,,WA,Single-ply,1
BD,M,Masters 61-67,75,192.5,,227.5,,420,Alfredo Evangelista,,OR,Single-ply,1
BD,M,Masters 80-84,60,93,,122.5,,215.5,Larry Vincent,,OR,Single-ply,1
BD,M,Open,75,192.5,,227.5,,419.5,Alfredo Evangelista,,OR,Single-ply,1
BD,M,Open,75,137.5,,182.5,,320,Eli Huizar Zuniga,,WA,Multi-ply,1
BD,M,Open,100,165,,242.5,,407.5,Nicholas Cole,,WA,Single-ply,1
BD,M,Open,140+,253,255,257.5,,510.5,Joe Mickelson,,WA,Single-ply,1
BD,M,Submasters 33-39,75,175,,235,,410,Barry Kunkel,,OR,Single-ply,1
B,F,Class 1,56,52.5,55,,,52.5,Joni Patton,,OR,Multi-ply,1
B,F,Class 1,82.5,60,,,,60,Stephanie Boden,,OR,Single-ply,1
B,F,Class 1,82.5,67.5,,,,67.5,DeAnna Dutton,,WA,Multi-ply,1
B,F,Class 1,90+,97.5,,,,97.5,Janina Siede,Germany,,Multi-ply,1
B,F,Disabled 1 13-19,60,37.5,,,,37.5,Ella Donaghey,,WA,Single-ply,1
B,F,Disabled 1 13-19,67.5,27.5,,,,27.5,Cheyann Purjue,,WA,Single-ply,1
B,F,Disabled 1 13-19,67.5,25,,,,25,Hailey Turney,,OR,Single-ply,2
B,F,Disabled 1 13-19,67.5,20,,,,20,Klaira Perez,,WA,Single-ply,3
B,F,Disabled 1 13-19,82.5,40,,,,40,Alexann Tureman,,WA,Single-ply,1
B,F,Disabled 1 13-19,90+,37.5,,,,37.5,Alexis Payne,,WA,Single-ply,1
B,F,Juniors 20-25,90,62.5,,,,62.5,Kirsten Shockman,,WA,Single-ply,1
B,F,Law-Fire Submasters,90,145,,,,145,Alisha Howard,,WA,Single-ply,1
B,F,Masters 40-46,67.5,85,,,,85,Chelsea Miller,,OR,Single-ply,1
B,F,Masters 47-53,60,77.5,,,,77.5,Rebecca Moore,,WA,Single-ply,1
B,F,Masters 47-53,75,152.5,,,,152.5,Cindy Shockman,,OR,Single-ply,1
B,F,Masters 47-53,100,105,,,,105,Linda Gerking,,WA,Multi-ply,1
B,F,Masters 54-60,48,37.5,,,,37.5,Debbie Rogers,,WA,Single-ply,1
B,F,Masters 54-60,75,120,,,,120,Nadine Brack,,WA,Single-ply,1
B,F,Masters 68-74,82.5,90,,,,90,Pat Robey,,WA,Single-ply,1
B,F,Open,75,120,,,,120,Nadine Brack,,WA,Single-ply,2
B,F,Open,75,152.5,,,,152.5,Cindy Shockman,,OR,Single-ply,1
B,F,Open,75,92.5,,,,92.5,Brittany Santee,,OR,Single-ply,3
B,F,Open,82.5,60,,,,60,Stephanie Boden,,OR,Single-ply,1
B,F,Open,90+,165,,,,165,Melissa Zumwalt,,OR,Single-ply,1
B,F,Submasters 33-39,90+,165,,,,165,Melissa Zumwalt,,OR,Single-ply,1
B,F,Teen 12-13,44,25,,,,25,Risa Chrestensen,,OR,Single-ply,1
D,F,Class 1,56,,,110,115,110,Joni Patton,,OR,Multi-ply,1
D,F,Class 1,60,,,112.5,,112.5,Susan Chloupek,,WA,Single-ply,1
D,F,Class 1,67.5,,,105,,105,Joyce Fuapau,,OR,Single-ply,1
D,F,Class 1,82.5,,,115.5,120,115.5,Stephanie Boden,,OR,Single-ply,1
D,F,Class 1,90+,,,150,167.5,150,Janina Siede,Germany,,Single-ply,1
D,F,Disabled 1 13-19,60,,,102.5,,102.5,Ella Donaghey,,WA,Single-ply,1
D,F,Disabled 1 13-19,67.5,,,65,,65,Hailey Turney,,OR,Single-ply,1
D,F,Disabled 1 13-19,67.5,,,60,,60,Cheyann Purjue,,WA,Single-ply,2
D,F,Disabled 1 13-19,67.5,,,45,,45,Klaira Perez,,WA,Single-ply,3
D,F,Disabled 1 13-19,82.5,,,92.5,,92.5,Alexann Tureman,,WA,Single-ply,1
D,F,Disabled 1 13-19,90+,,,77.5,,77.5,Alexis Payne,,WA,Single-ply,1
D,F,Juniors 20-25,60,,,147.5,,147.5,Lauren Johnson,,OR,Single-ply,1
D,F,Juniors 20-25,90,,,152.5,,152.5,Kirsten Shockman,,WA,Single-ply,1
D,F,Law-Fire Submasters,90,,,210,,210,Alisha Howard,,WA,Single-ply,1
D,F,Masters 47-53,75,,,220,222.5,220,Cindy Shockman,,OR,Single-ply,1
D,F,Masters 47-53,100,,,172.5,,172.5,Linda Gerking,,WA,Single-ply,1
D,F,Masters 54-60,48,,,115,,115,Debbie Rogers,,WA,Single-ply,1
D,F,Masters 54-60,75,,,155,,155,Nadine Brack,,WA,Single-ply,1
D,F,Masters 61-67,60,,,112.5,,112.5,Susan Chloupek,,WA,Single-ply,1
D,F,Masters 75-79,75,,,108,110,108,Judy Madsen,,OR,Single-ply,1
D,F,Open,48,,,115,,115,Debbie Rogers,,WA,Single-ply,1
D,F,Open,75,,,155,,155,Nadine Brack,,WA,Single-ply,2
D,F,Open,75,,,220,222.5,220,Cindy Shockman,,OR,Single-ply,1
D,F,Open,82.5,,,115.5,120,115.5,Stephanie Boden,,OR,Single-ply,1
D,F,Submasters 33-39,60,,,122.5,,122.5,Daisy Adriatico,,NV,Single-ply,1
D,F,Submasters 33-39,90,,,210,,210,Alisha Howard,,WA,Single-ply,1
D,F,Teen 16-17,100,,,100,,100,Amanda Weeks-Combs,,MT,Single-ply,1
BD,F,Class 1,56,52.5,55,110,115,162.5,Joni Patton,,OR,Multi-ply,1
BD,F,Class 1,82.5,60,,115.5,120,175.5,Stephanie Boden,,OR,Single-ply,1
BD,F,Masters 54-60,48,37.5,,115,,152.5,Debbie Rogers,,WA,Single-ply,1
BD,F,Masters 54-60,75,120,,155,,275,Nadine Brack,,WA,Single-ply,1
BD,F,Open,82.5,60,,115.5,120,175.5,Stephanie Boden,,OR,Single-ply,1
BD,F,Open,75,120,,155,,275,Nadine Brack,,WA,Single-ply,1
