WeightClassKg,Sex,Place,JapaneseName,Name,BirthYear,Age,Team,BodyweightKg,Squat1Kg,Squat2Kg,Squat3Kg,Bench1Kg,Bench2Kg,Bench3Kg,Deadlift1Kg,Deadlift2Kg,Deadlift3Kg,Best3SquatKg,Best3BenchKg,Best3DeadliftKg,TotalKg,Event,Equipment,Division
47,F,1,福島 友佳子,Yukako Fukushima,1970,48,パワーハウス,46.55,175,185,191,125,132.5,135.5,150,162.5,170,191,135.5,170,496.5,SBD,Single-ply,Open
47,F,2,早川 琴果,Kotomi Hayakawa,1995,23,ESQUATIR,46.75,-145,145,150,-90,92.5,100,-150,150,-173.5,150,100,150,400,SBD,Single-ply,Open
47,F,3,菊地 雅,,1998,20,TXP,47,132.5,140,-142.5,85,90,-95,120,130,135,140,90,135,365,SBD,Single-ply,Open
47,F,4,岡本 美樹,,1965,53,リアルスィング,46.7,120,-122.5,122.5,85,90,95,125,135,-140,122.5,95,135,352.5,SBD,Single-ply,Open
47,F,5,滝沢 嘉恵,Yoshie Takizawa,1957,61,アサマﾄﾚｰﾆﾝｸﾞｸﾗﾌﾞ,45.75,102.5,112.5,-117.5,-67.5,67.5,72.5,100,112.5,125,112.5,72.5,125,310,SBD,Single-ply,Open
52,F,1,赤川 智子,Tomoko Akagawa,1984,34,アサマﾄﾚｰﾆﾝｸﾞｸﾗﾌﾞ,51.9,-135,135,147.5,95,100,105,132.5,142.5,147.5,147.5,105,147.5,400,SBD,Single-ply,Open
52,F,2,澤山 あおい,Aoi Sawayama,1998,20,パワーハウス,50.25,152.5,162.5,-167.5,80,87.5,95,127.5,135,-142.5,162.5,95,135,392.5,SBD,Single-ply,Open
52,F,3,寺村 美香,Mika Teramura,1962,56,江別ﾊﾟﾜｰﾘﾌﾃｨﾝｸﾞ協会,51.8,-135,135,140,85,87.5,90,125,135,140,140,90,140,370,SBD,Single-ply,Open
52,F,4,原 あずさ,Azusa Hara,1967,51,ﾄﾚｰﾆﾝｸﾞｼﾞﾑ,48.65,-145,-145,145,60,65,70,100,120,-130,145,70,120,335,SBD,Single-ply,Open
52,F,5,南 采沙,,1993,25,TXP,51.25,135,-142.5,142.5,90,-95,,100,,,142.5,90,100,332.5,SBD,Single-ply,Open
52,F,6,木村 初子,Hatsuko Kimura,1951,67,アサマﾄﾚｰﾆﾝｸﾞｸﾗﾌﾞ,51.2,-110,110,-120,50,-55,,150,163,-170,110,50,163,323,SBD,Single-ply,Open
52,F,7,磯田 あかね,,1970,48,アサマﾄﾚｰﾆﾝｸﾞｸﾗﾌﾞ,51.8,95,105,-115,-77.5,77.5,-80,115,125,-135,105,77.5,125,307.5,SBD,Single-ply,Open
52,F,DQ,荻野 智子,,1997,21,ESQUATIR,47.15,-140,-150,-150,-80,80,90,120,122.5,135,,90,135,,SBD,Single-ply,Open
52,F,DQ,善本 弥生,,1965,53,フジモトジム,51.1,-140,-140,-140,-65,65,-67.5,90,100,-110,,65,100,,SBD,Single-ply,Open
57,F,1,加藤 幸枝,Yukie Kato,1974,44,TXP,56.25,160,170,176,90,95,-97.5,165,175,-183,176,95,175,446,SBD,Single-ply,Open
57,F,2,小林 展代,Nobuyo Kobayashi,1997,21,TXP,55.85,160,170,176.5,95,102.5,105,125,135,145,176.5,105,145,426.5,SBD,Single-ply,Open
57,F,3,長谷川 真紀,,1965,53,パワーハウス,55.75,122.5,127.5,-132.5,85,-87.5,90,120,-132.5,-132.5,127.5,90,120,337.5,SBD,Single-ply,Open
57,F,4,山田 珠美,,1964,54,リアルスィング,56.3,-122.5,-122.5,122.5,57.5,60,-62.5,120,125,127.5,122.5,60,127.5,310,SBD,Single-ply,Open
57,F,DQ,渕上 宏恵,,1967,51,アサマﾄﾚｰﾆﾝｸﾞｸﾗﾌﾞ,56.75,-155,155,-165,-87.5,-87.5,-87.5,120,130,135,155,,135,,SBD,Single-ply,Open
57,F,NS,欠場 来栖 彩,,1998,20,青山学院大学,,,,,,,,,,,,,,,SBD,Single-ply,Open
63,F,1,北村 真由美,Mayumi Kitamura,1967,51,アサマﾄﾚｰﾆﾝｸﾞｸﾗﾌﾞ,63,185,195,202.5,160,-167.5,-167.5,182.5,190,-195,202.5,160,190,552.5,SBD,Single-ply,Open
72,F,1,照屋 利恵,Rie Teruya,1975,43,POWER SPORT,69.7,155,165,-170,125,-135,-135,145,155,-160,165,125,155,445,SBD,Single-ply,Open
72,F,2,後藤 啓恵,,1966,52,リアルスィング,71.15,-137.5,137.5,145,67.5,-72.5,-72.5,125,-132.5,-132.5,145,67.5,125,337.5,SBD,Single-ply,Open
84,F,1,加藤 みどり,Midori Kato,1971,47,きくいけ整形外科,83.2,140,-160,160,70,75,80,130,150,160.5,160,80,160.5,400.5,SBD,Single-ply,Open
84,F,DQ,篠崎 純子,,1967,51,ESQUATIR,76.7,-140,-140,-140,90,-95,-95,130,140,-150,,90,140,,SBD,Single-ply,Open
59,M,1,佐竹 優典,Yusuke Satake,1996,22,青山学院大学,58.9,245,255,-265,155,167.5,175,225,240,258,255,175,258,688,SBD,Single-ply,Open
59,M,2,久保 元人,Motohito Kubo,1989,29,K'sGYM,58.65,210,222.5,232.5,120,127.5,130,245,257.5,258.5,232.5,130,258.5,621,SBD,Single-ply,Open
59,M,3,田村 陽,Yo Tamura,1999,19,青山学院大学,58.9,200,210,220,170,185,190,200,210,-215,220,190,210,620,SBD,Single-ply,Open
59,M,4,白石 匡,,1980,37,K'sGYM,58.45,-200,200,210,130,140,147.5,210,-215,215,210,147.5,215,572.5,SBD,Single-ply,Open
59,M,5,三河 涼,Ryo Mikawa,1986,32,アサマﾄﾚｰﾆﾝｸﾞｸﾗﾌﾞ,59,220,-235,235,110,120,125,200,-210,210,235,125,210,570,SBD,Single-ply,Open
59,M,DQ,水野 貴章,,1967,51,ｺﾞｰﾙﾄﾞｼﾞﾑ成田千葉,58.7,205,215,-220,-170,-170,-170,-205,215,,215,,215,,SBD,Single-ply,Open
66,M,1,木内 陽介,Yosuke Kiuchi,1996,22,青山学院大学,65.65,-260,265,275,170,180,185,260,275,-297.5,275,185,275,735,SBD,Single-ply,Open
66,M,2,佐藤 義宏,Yoshihiro Sato,1982,36,K'sGYM横浜,65.5,255,265,-270,205,-215,215,230,-240,-240,265,215,230,710,SBD,Single-ply,Open
66,M,3,瑞慶覧 勇輝,,1988,30,POWER SPORT,65.35,230,-240,240,180,190,-200,220,230,237.5,240,190,237.5,667.5,SBD,Single-ply,Open
66,M,4,飯村 貴弘,,1990,28,パワーハウスつくば,65.75,240,250,257.5,170,-177.5,-177.5,210,227.5,235,257.5,170,235,662.5,SBD,Single-ply,Open
66,M,5,角館 武,Kakudate Takeshi,1980,38,小田原アリーナ,65.75,250,-265,-265,162.5,170,-175,-190,190,200,250,170,200,620,SBD,Single-ply,Open
66,M,6,鈴木 真人,,1984,34,ノーリミッツ,65.95,195,202.5,-212.5,155,-160,-160,215,227.5,232.5,202.5,155,232.5,590,SBD,Single-ply,Open
74,M,1,大谷 憲弘,Norihiro Otani,1980,38,ESQUATIR,73,290,310,320,230,240,-245,250,260,-270,320,240,260,820,SBD,Single-ply,Open
74,M,2,濱田 展行,Nobuyuki Hamada,1969,49,K'sGYM,73.25,290,300,-310.5,210,-220,-220,260,270,-280,300,210,270,780,SBD,Single-ply,Open
74,M,3,鈴木 豪,Go Suzuki,1994,24,ESQUATIR,72.6,265,-280,-280,190,200,-210,265,275,285,265,200,285,750,SBD,Single-ply,Open
74,M,4,本島 大稔,,1975,43,,73.45,265,277.5,-280,195,200,207.5,235,247.5,-257.5,277.5,207.5,247.5,732.5,SBD,Single-ply,Open
74,M,5,石川 裕士,Hiroshi Ishikawa,1997,21,青山学院大学,73.6,235,245,252.5,200,210,215,220,235,-245,252.5,215,235,702.5,SBD,Single-ply,Open
74,M,6,川 友樹,,1989,29,アサマﾄﾚｰﾆﾝｸﾞｸﾗﾌﾞ,73.85,225,237.5,242.5,160,165,-167.5,225,240,-252.5,242.5,165,240,647.5,SBD,Single-ply,Open
74,M,7,野澤 健人,,1997,21,ESQUATIR,73.7,-250,-250,250,140,150,-160,240,-252.5,-260,250,150,240,640,SBD,Single-ply,Open
74,M,8,山田 英司,,1970,48,アサマﾄﾚｰﾆﾝｸﾞｸﾗﾌﾞ,70.3,217.5,232.5,-240,140,-150,150,232.5,247.5,255,232.5,150,255,637.5,SBD,Single-ply,Open
74,M,9,大石 圭太朗,,1981,37,アサマﾄﾚｰﾆﾝｸﾞｸﾗﾌﾞ,72.65,220,227.5,-235,155,160,-162.5,225,232.5,-240,227.5,160,232.5,620,SBD,Single-ply,Open
74,M,10,梶山 寛之,,1980,38,ESQUATIR,72.35,-235,235,-250,180,185,-190,200,-220,-220,235,185,200,620,SBD,Single-ply,Open
74,M,DQ,宮澤 賢次,,1977,41,パワーハウス,73.7,240,252.5,-260,-140,-140,-140,252.5,,,252.5,,252.5,,SBD,Single-ply,Open
74,M,NS,欠場 奥谷 元哉,,1980,38,K'sGYM,,,,,,,,,,,,,,,SBD,Single-ply,Open
83,M,1,大室 豪槻,Goki Omuro,1993,25,K'sGYM,82.65,-285,285,290,295,303.5,305.5,245,-252.5,252.5,290,305.5,252.5,848,SBD,Single-ply,Open
83,M,2,荒川 大介,Daisuke Arakawa,1978,40,ｺﾞｰﾙﾄﾞｼﾞﾑﾊﾞｰﾍﾞﾙｸﾗﾌﾞ,82.9,270,290,300,-210,210,220,270,303,-328.5,300,220,303,823,SBD,Single-ply,Open
83,M,3,小早川 渉,Wataru Kobayakawa,1975,43,TXP,82.8,315,325,-335.5,210,-215,215,282.5,-290,-290,325,215,282.5,822.5,SBD,Single-ply,Open
83,M,DQ,嶋田 友則,,1979,39,ESQUATIR,81.3,-250,-250,-250,180,187.5,-197.5,235,245,-255,,187.5,245,,SBD,Single-ply,Open
93,M,1,鈴木 喜稀,Yoshiki Suzuki,1993,25,小田原アリーナ,92.45,-325,-337.5,337.5,227.5,235,242.5,275,285,290,337.5,242.5,290,870,SBD,Single-ply,Open
93,M,2,荒川 孝行,Takayuki Arakawa,1978,40,ｺﾞｰﾙﾄﾞｼﾞﾑﾊﾞｰﾍﾞﾙｸﾗﾌﾞ,91.55,282.5,302.5,312.5,225,-235,235,270,285,-308,312.5,235,285,832.5,SBD,Single-ply,Open
93,M,3,久保 匡平,Kyohei Kubo,1987,31,パワーハウス,92.45,-320,330,-340,-230,240,250,230,-242.5,-255,330,250,230,810,SBD,Single-ply,Open
93,M,4,川 望,,1986,32,K'sGYM,92.1,245,-260,260,280,290,-300,240,-245,-260,260,290,240,790,SBD,Single-ply,Open
93,M,5,宇津木 啓,Hiroshi Utsugi,1996,22,東洋大学,84.6,285,-305,305,175,185,190,230,250,-262.5,305,190,250,745,SBD,Single-ply,Open
93,M,6,福島 和文,,1966,52,パワーハウス,91.1,265,275,285,180,-187.5,187.5,245,260,270,285,187.5,270,742.5,SBD,Single-ply,Open
93,M,7,田中 晃亮,,1976,42,パワーハウス,92.35,-270,-275,275,195,-200,200,225,245,252.5,275,200,252.5,727.5,SBD,Single-ply,Open
93,M,8,髙島 皓介,,1997,21,青山学院大学,88.5,270,285,290,165,170,-175,230,245,255,290,170,255,715,SBD,Single-ply,Open
93,M,9,幸喜 輝明,,1980,37,パワーハウス赤穂,92.1,270,285,-300,200,-210,-210,230,-240,-240,285,200,230,715,SBD,Single-ply,Open
93,M,10,目黒 英一,,1969,49,パワーハウスつくば,92.6,235,245,250,195,200,205,205,220,230,250,205,230,685,SBD,Single-ply,Open
105,M,1,阿久津 貴史,Takahito Akutsu,1982,36,TXP,102.6,335,347.5,357.5,-262.5,-262.5,262.5,270,285,-295,357.5,262.5,285,905,SBD,Single-ply,Open
105,M,2,堀口 耀介,Yosuke Horiguchi,1993,25,TXP,101.25,300,-320,-320,275,292.5,-300,-222.5,222.5,,300,292.5,222.5,815,SBD,Single-ply,Open
120,M,1,手崎 勝夫,Katsuo Tesaki,1977,41,リアルスィング,116.2,310,-320,-320,-210,210,217.5,270,282.5,-287.5,310,217.5,282.5,810,SBD,Single-ply,Open
120,M,2,柴田 道郎,Michio Shibata,1978,40,Team力姫 石川,109.7,275,290,300,230,250,267.5,240,-257.5,-257.5,300,267.5,240,807.5,SBD,Single-ply,Open
120,M,3,横山 恭平,Kyohei Yokoyama,1994,24,K'sGYM,114.2,270,-280,290,240,-250,250,230,250,-270,290,250,250,790,SBD,Single-ply,Open
120+,M,1,伊藤 永太,Eita Ito,1995,23,筋トレ怪力塾,154.65,320,340,350,240,250,-255,280,300,308,350,250,308,908,SBD,Single-ply,Open
120+,M,2,須藤 健介,Kensuke Suto,1997,21,コスモスポーツ,135.65,320,-330,-330,270,-300,-300,220,240,-265,320,270,240,830,SBD,Single-ply,Open
