Division,WeightClassKg,Place,Name,Team,BodyweightKg,Best3SquatKg,Best3BenchKg,Best3DeadliftKg,TotalKg,Equipment,Event,Sex
Boys,51.71,1,Marshall Chappell,Seminole,48.9,133.81,77.11,131.54,342.46,Single-ply,SBD,M
Boys,51.71,2,Taskin Amin,Midland Lee,49.8,129.27,63.5,142.88,335.66,Single-ply,SBD,M
Boys,51.71,3,Chris Rodriguez,Iraan,49.8,117.93,74.84,117.93,310.71,Single-ply,SBD,M
Boys,51.71,4,Aza Hinojos,Pecos,48.53,111.13,70.31,127.01,308.44,Single-ply,SBD,M
Boys,51.71,5,Zach Martin,Midland Greenwood,47.99,90.72,52.16,111.13,254.01,Single-ply,SBD,M
Boys,51.71,6,Darian Vidana,Monahans,48.99,99.79,49.9,97.52,247.21,Single-ply,SBD,M
Boys,55.79,1,Kyle Parker,Alpine,54.79,113.4,70.31,136.08,319.78,Single-ply,SBD,M
Boys,55.79,2,Jimmy Miller,Alpine,55.79,113.4,63.5,136.08,312.98,Single-ply,SBD,M
Boys,55.79,3,Michael Suniga,Midland Lee,52.53,113.4,61.23,129.27,303.91,Single-ply,SBD,M
Boys,55.79,4,Nicholas Ybarra,Pecos,55.34,120.2,63.5,115.67,299.37,Single-ply,SBD,M
Boys,55.79,5,Justin Workman,Pecos,53.52,99.79,58.97,117.93,276.69,Single-ply,SBD,M
Boys,55.79,6,Robert Marquez,Big Lake Reagan County,52.07,83.91,56.7,117.93,258.55,Single-ply,SBD,M
Boys,55.79,7,Jonathon Courville,Andrews,55.7,74.84,65.77,111.13,251.74,Single-ply,SBD,M
Boys,55.79,8,Ernest Villanueva,Fort Stockton,55.79,90.72,47.63,104.33,242.67,Single-ply,SBD,M
Boys,59.87,1,Miles Ochsner,Midland Lee,58.88,172.37,92.99,181.44,446.79,Single-ply,SBD,M
Boys,59.87,2,Coe Kubicek,Seminole,59.33,154.22,97.52,156.49,408.23,Single-ply,SBD,M
Boys,59.87,3,Federico Juarez,Andrews,59.78,142.88,88.45,145.15,376.48,Single-ply,SBD,M
Boys,59.87,4,Trey Cave,Midland Greenwood,58.06,122.47,70.31,136.08,328.85,Single-ply,SBD,M
Boys,59.87,5,Martin Hernandez #3,Andrews,57.52,120.2,77.11,129.27,326.59,Single-ply,SBD,M
Boys,59.87,6,German Rodriguez,Monahans,59.87,122.47,74.84,127.01,324.32,Single-ply,SBD,M
Boys,59.87,7,Ryan Coon,Seminole,59.78,129.27,68.04,124.74,322.05,Single-ply,SBD,M
Boys,59.87,8,Joel Jaramillo,Pecos,57.97,115.67,74.84,129.27,319.78,Single-ply,SBD,M
Boys,59.87,9,Edward Lumbreras,Fort Stockton,59.78,102.06,74.84,127.01,303.91,Single-ply,SBD,M
Boys,59.87,10,Avan Feyry,Fort Stockton,57.61,90.72,47.63,102.06,240.4,Single-ply,SBD,M
Boys,59.87,DQ,Dario Alvarez,Pecos,59.87,117.93,,,,Single-ply,SBD,M
Boys,67.13,1,Gabriel Chavez,Kermit,62.6,167.83,111.13,181.44,460.4,Single-ply,SBD,M
Boys,67.13,2,John Ripley,Fort Stockton,67.04,172.37,106.59,165.56,444.52,Single-ply,SBD,M
Boys,67.13,3,Josh Foster,Midland Lee,63.87,151.95,77.11,176.9,405.97,Single-ply,SBD,M
Boys,67.13,4,Daniel Perez,McCamey,65.32,158.76,83.91,163.29,405.97,Single-ply,SBD,M
Boys,67.13,5,Larry Polanco,Andrews,66.13,154.22,81.65,170.1,405.97,Single-ply,SBD,M
Boys,67.13,6,Alex Garcia,Odessa,65.77,151.95,88.45,156.49,396.89,Single-ply,SBD,M
Boys,67.13,7,Matt Gonzales,Fort Stockton,63.5,142.88,81.65,151.95,376.48,Single-ply,SBD,M
Boys,67.13,8,Aaron Castillo,Pecos,65.77,142.88,79.38,140.61,362.87,Single-ply,SBD,M
Boys,67.13,9,Albert Garcia,Fort Stockton,63.5,140.61,70.31,147.42,358.34,Single-ply,SBD,M
Boys,67.13,10,Brandon Bradford,Kermit,60.24,124.74,86.18,138.35,349.27,Single-ply,SBD,M
Boys,67.13,11,Aj Hope,Midland Lee,66.59,136.08,68.04,142.88,347,Single-ply,SBD,M
Boys,67.13,12,Cody Huelsherg,Alpine,66.13,127.01,79.38,133.81,340.19,Single-ply,SBD,M
Boys,67.13,13,Alejandro Mendoza,Monahans,63.05,122.47,74.84,136.08,333.39,Single-ply,SBD,M
Boys,67.13,14,Dallas Boyden,Monahans,60.24,127.01,63.5,136.08,326.59,Single-ply,SBD,M
Boys,67.13,15,Faustino Rosas,Fort Stockton,63.96,136.08,56.7,131.54,324.32,Single-ply,SBD,M
Boys,67.13,16,Nathan Montes,Monahans,66.68,124.74,72.57,124.74,322.05,Single-ply,SBD,M
Boys,67.13,17,Timothy Stark,Big Lake Reagan County,62.05,124.74,61.23,129.27,315.25,Single-ply,SBD,M
Boys,67.13,18,Sam Partin,Midland Greenwood,61.23,111.13,65.77,113.4,290.3,Single-ply,SBD,M
Boys,67.13,19,Andrew Ramos,Balmorhea,64.41,111.13,70.31,104.33,285.76,Single-ply,SBD,M
Boys,67.13,20,David Bislar,Fort Stockton,66.68,90.72,56.7,102.06,249.48,Single-ply,SBD,M
Boys,67.13,DQ,Rigo Juarez,Kermit,64.32,122.47,,,,Single-ply,SBD,M
Boys,67.13,DQ,Brice Burgess,Midland Greenwood,64.86,158.76,,,,Single-ply,SBD,M
Boys,67.13,DQ,Calan Ahrens,Alpine,66.68,156.49,,,,Single-ply,SBD,M
Boys,67.13,DQ,John David Crenshaw,Andrews,60.33,92.99,,,,Single-ply,SBD,M
Boys,67.13,DQ,Robert Clanton,Midland Greenwood,66.22,131.54,,,,Single-ply,SBD,M
Boys,74.84,1,Mark Kollar,Midland Lee,72.57,185.97,120.2,190.51,496.68,Single-ply,SBD,M
Boys,74.84,2,Donovan Rodriguez,Pecos,74.3,181.44,104.33,181.44,467.2,Single-ply,SBD,M
Boys,74.84,3,David Pineda,McCamey,69.76,158.76,97.52,170.1,426.38,Single-ply,SBD,M
Boys,74.84,4,Bubba Boyett,Monahans,73.07,163.29,92.99,170.1,426.38,Single-ply,SBD,M
Boys,74.84,5,Alex Neal,Rankin,74.84,142.88,104.33,163.29,410.5,Single-ply,SBD,M
Boys,74.84,6,Kyler Gilbreath,Andrews,73.48,142.88,92.99,172.37,408.23,Single-ply,SBD,M
Boys,74.84,7,Mark Marquez,Midland Lee,73.84,154.22,83.91,167.83,405.97,Single-ply,SBD,M
Boys,74.84,8,Marc Zarate,Andrews,74.84,156.49,97.52,142.88,396.89,Single-ply,SBD,M
Boys,74.84,9,Victor Flores,Monahans,74.75,145.15,95.25,154.22,394.63,Single-ply,SBD,M
Boys,74.84,10,Justin Rodriguez,McCamey,68.04,142.88,95.25,154.22,392.36,Single-ply,SBD,M
Boys,74.84,11,Jonathan Dominguez,McCamey,69.4,136.08,95.25,154.22,385.55,Single-ply,SBD,M
Boys,74.84,12,Justin Thornton,Pecos,74.39,136.08,83.91,156.49,376.48,Single-ply,SBD,M
Boys,74.84,13,Adan Martinez,Odessa,74.84,138.35,70.31,136.08,344.73,Single-ply,SBD,M
Boys,74.84,14,AJ Sanchez,Monahans,74.84,122.47,74.84,140.61,337.93,Single-ply,SBD,M
Boys,74.84,15,Anthony Montes,Monahans,74.39,117.93,81.65,136.08,335.66,Single-ply,SBD,M
Boys,74.84,16,Jt Aldrige,Midland Greenwood,68.49,111.13,74.84,108.86,294.84,Single-ply,SBD,M
Boys,74.84,17,Adrian Flores,Monahans,71.21,113.4,72.57,102.06,288.03,Single-ply,SBD,M
Boys,74.84,18,Jalen Falcon,Fort Stockton,73.03,102.06,56.7,108.86,267.62,Single-ply,SBD,M
Boys,74.84,19,Tyler Davis,Pecos,67.59,92.99,68.04,92.99,254.01,Single-ply,SBD,M
Boys,82.1,1,Cole Barton #3,Midland Greenwood,78.47,204.12,127.01,199.58,530.7,Single-ply,SBD,M
Boys,82.1,2,Baxter Pilley,Fort Stockton,81.65,172.37,117.93,195.04,485.34,Single-ply,SBD,M
Boys,82.1,3,Lomas Gonzales,Pecos,77.47,195.04,102.06,161.03,458.13,Single-ply,SBD,M
Boys,82.1,4,Will Welch,Midland Greenwood,77.11,165.56,106.59,163.29,435.45,Single-ply,SBD,M
Boys,82.1,5,Miguel López,Big Lake Reagan County,82.01,167.83,88.45,174.63,430.91,Single-ply,SBD,M
Boys,82.1,6,Cody Cagle,Iraan,75.3,140.61,104.33,163.29,408.23,Single-ply,SBD,M
Boys,82.1,7,Eddie Garcia,Odessa,81.56,138.35,102.06,156.49,396.89,Single-ply,SBD,M
Boys,82.1,8,Tivo Armendariz,Monahans,79.74,145.15,95.25,145.15,385.55,Single-ply,SBD,M
Boys,82.1,9,Joedward Gomez,Pecos,76.57,145.15,83.91,145.15,374.21,Single-ply,SBD,M
Boys,82.1,10,Aaron Carlos,Monahans,77.11,127.01,77.11,161.03,365.14,Single-ply,SBD,M
Boys,82.1,11,Floyd Emery,Crane,80.29,127.01,97.52,140.61,365.14,Single-ply,SBD,M
Boys,82.1,12,Oscar Garcia,Pecos,78.02,131.54,77.11,120.2,328.85,Single-ply,SBD,M
Boys,82.1,13,Justin Bills,Andrews,77.56,127.01,77.11,117.93,322.05,Single-ply,SBD,M
Boys,82.1,DQ,Efren Gonzales,Odessa,78.93,,,,,Single-ply,SBD,M
Boys,82.1,DQ,Steven Alvardado,Kermit,75.3,,,,,Single-ply,SBD,M
Boys,89.81,1,Jd Tankersley,Iraan,87.91,195.04,124.74,217.72,537.51,Single-ply,SBD,M
Boys,89.81,2,Jake Varela,Pecos,89.27,190.51,136.08,201.85,528.44,Single-ply,SBD,M
Boys,89.81,3,Arthur Sedillos,Monahans,88.45,181.44,97.52,176.9,455.86,Single-ply,SBD,M
Boys,89.81,4,Josh Blancas,Midland Lee,87.09,158.76,115.67,176.9,451.32,Single-ply,SBD,M
Boys,89.81,5,Dillon Caylor,Midland Lee,87.54,158.76,90.72,185.97,435.45,Single-ply,SBD,M
Boys,89.81,6,Cameron Yazdani,Midland Lee,87.54,154.22,74.84,154.22,383.29,Single-ply,SBD,M
Boys,89.81,7,Carlos Gomez,Iraan,84.82,136.08,99.79,136.08,371.95,Single-ply,SBD,M
Boys,89.81,8,Raven Shan,Midland Greenwood,83.46,124.74,83.91,142.88,351.53,Single-ply,SBD,M
Boys,89.81,9,Garrett Ford,Monahans,85.28,138.35,72.57,117.93,328.85,Single-ply,SBD,M
Boys,99.79,1,Brandon Sanchez,Fort Stockton,93.8,204.12,115.67,204.12,523.9,Single-ply,SBD,M
Boys,99.79,2,Micheal Molina,McCamey,99.7,195.04,120.2,185.97,501.22,Single-ply,SBD,M
Boys,99.79,3,Tanner Armstrong,Midland Lee,98.43,181.44,122.47,172.37,476.27,Single-ply,SBD,M
Boys,99.79,4,Leo Almada,Alpine,97.52,163.29,104.33,195.04,462.66,Single-ply,SBD,M
Boys,99.79,5,Justin Ornelas,Crane,90.63,181.44,113.4,163.29,458.13,Single-ply,SBD,M
Boys,99.79,6,Ramiro Pinales,Pecos,92.99,185.97,97.52,174.63,458.13,Single-ply,SBD,M
Boys,99.79,7,Ibraham Carrasco,Andrews,98.34,165.56,111.13,181.44,458.13,Single-ply,SBD,M
Boys,99.79,8,Alex Montano,Pecos,97.89,181.44,92.99,170.1,444.52,Single-ply,SBD,M
Boys,99.79,9,Rody Landeros,Midland Greenwood,92.99,165.56,102.06,154.22,421.84,Single-ply,SBD,M
Boys,99.79,10,Steven Galvan,Seminole,98.43,156.49,95.25,149.69,401.43,Single-ply,SBD,M
Boys,99.79,11,Jesse Barrios,Fort Stockton,90.72,147.42,83.91,158.76,390.09,Single-ply,SBD,M
Boys,99.79,12,Ryan Bagley,Andrews,96.16,142.88,77.11,147.42,367.41,Single-ply,SBD,M
Boys,99.79,13,Brandon Pineda,McCamey,97.07,127.01,81.65,138.35,347,Single-ply,SBD,M
Boys,99.79,14,Jacob Anderson,Crane,90.72,127.01,83.91,129.27,340.19,Single-ply,SBD,M
Boys,99.79,DQ,Enrique Sotelo,Pecos,99.7,226.8,142.88,,,Single-ply,SBD,M
Boys,109.77,1,Jose Flores,Seminole,107.95,215.46,149.69,206.38,571.53,Single-ply,SBD,M
Boys,109.77,2,Imnok Saenz,Kermit,104.33,206.38,120.2,195.04,521.63,Single-ply,SBD,M
Boys,109.77,3,Gerardo Hernandez,Crane,109.32,199.58,117.93,195.04,512.56,Single-ply,SBD,M
Boys,109.77,4,Shawn Tawney,Odessa,105.69,204.12,124.74,179.17,508.02,Single-ply,SBD,M
Boys,109.77,5,Jordan Falcon,Fort Stockton,106.05,181.44,117.93,190.51,489.88,Single-ply,SBD,M
Boys,109.77,6,Angel Martinez,Fort Stockton,102.42,181.44,117.93,172.37,471.74,Single-ply,SBD,M
Boys,109.77,7,Shaqille Walters,Midland Greenwood,103.33,183.7,97.52,181.44,462.66,Single-ply,SBD,M
Boys,109.77,8,Keith Kalka,Fort Stockton,104.69,149.69,86.18,147.42,383.29,Single-ply,SBD,M
Boys,109.77,9,Ruben Muniz,Kermit,101.6,136.08,95.25,140.61,371.95,Single-ply,SBD,M
Boys,109.77,10,Isaiah Natividad,Pecos,100.61,124.74,99.79,142.88,367.41,Single-ply,SBD,M
Boys,109.77,11,Chance Arriaga,Fort Stockton,100.15,115.67,79.38,136.08,331.12,Single-ply,SBD,M
Boys,109.77,12,Hector Sanchez,Big Lake Reagan County,106.14,88.45,61.23,104.33,254.01,Single-ply,SBD,M
Boys,109.77,DQ,Colt Snell,Midland Greenwood,107.5,,,,,Single-ply,SBD,M
Boys,124.74,1,Ty Coker,Midland Greenwood,124.74,263.08,165.56,217.72,646.37,Single-ply,SBD,M
Boys,124.74,2,Irvin Sanchez,Andrews,116.57,249.48,149.69,208.65,607.81,Single-ply,SBD,M
Boys,124.74,3,Peter Sunderland,Midland Greenwood,111.13,231.33,145.15,201.85,578.33,Single-ply,SBD,M
Boys,124.74,4,Matt Ornelas,Monahans,112.94,233.6,133.81,210.92,578.33,Single-ply,SBD,M
Boys,124.74,5,Matt Gonzales,Odessa,120.2,240.4,133.81,183.7,557.92,Single-ply,SBD,M
Boys,124.74,6,Miguel Chavez,Iraan,121.56,231.33,131.54,190.51,553.38,Single-ply,SBD,M
Boys,124.74,7,Curtis Hubert,Andrews,119.2,204.12,124.74,215.46,544.31,Single-ply,SBD,M
Boys,124.74,8,Alex Jaramillo,Andrews,111.49,197.31,124.74,174.63,496.68,Single-ply,SBD,M
Boys,124.74,9,Andrew Rawling,Monahans,115.58,208.65,90.72,172.37,471.74,Single-ply,SBD,M
Boys,124.74,10,Arzel Alvarado,Kermit,117.03,185.97,90.72,145.15,421.84,Single-ply,SBD,M
Boys,124.74,11,Cullen Carruth,Andrews,119.2,161.03,88.45,161.03,410.5,Single-ply,SBD,M
Boys,124.74,12,Isaiah Delbosque,Iraan,112.85,165.56,92.99,136.08,394.63,Single-ply,SBD,M
Boys,124.74,13,Michael Nguyen,Midland Greenwood,114.76,149.69,79.38,142.88,371.95,Single-ply,SBD,M
Boys,124.74,14,Lee Beggs,Midland Greenwood,116.03,142.88,95.25,127.01,365.14,Single-ply,SBD,M
Boys,124.74,15,John Griffin,Midland Greenwood,115.58,127.01,92.99,131.54,351.53,Single-ply,SBD,M
Boys,124.74+,1,Louis Rodriguez,Pecos,130.09,217.72,124.74,226.8,569.26,Single-ply,SBD,M
Boys,124.74+,2,Daniel Viasana,Midland Lee,139.71,190.51,158.76,208.65,557.92,Single-ply,SBD,M
Boys,124.74+,3,Cristian Venegas,Crane,138.35,231.33,133.81,190.51,555.65,Single-ply,SBD,M
Boys,124.74+,4,Hippo Brito,Fort Stockton,134.72,204.12,108.86,192.78,505.76,Single-ply,SBD,M
Boys,124.74+,5,Tyler Ramos,Pecos,138.25,199.58,97.52,181.44,478.54,Single-ply,SBD,M
Boys,124.74+,6,James Penman,Andrews,156.04,215.46,77.11,142.88,435.45,Single-ply,SBD,M
Boys,124.74+,DQ,Ross Phipps,Monahans,129.64,88.45,,,,Single-ply,SBD,M
